{
    "ClassName": "ScreenGui",
    "Children": [
        {
            "Name": "Frame",
            "ClassName": "Frame",
            "Properties": {
                "BackgroundTransparency": 1,
                "Size": {
                    "Type": "UDim2",
                    "Value": [1, 0, 1, 0]
                }
            } 
        }
    ]
}